…
    ##  - For a list of all models and their licenses (most models you can download with this package have either a CC-BY-SA or a CC-BY-SA-NC license) read the documentation at ?udpipe_download_model. For building your own models: visit the documentation by typing vignette('udpipe-train', package = 'udpipe')

    ## Downloading finished, model stored at 'C:/Users/anaes/Dropbox/2021/CursoR-posgrado/spanish-gsd-ud-2.5-191206.udpipe'

### Formato epub

Vamos a importar un libro desde su formato epub. Este formato es mejor
que el de pdf porque no tenemos tantos cortes por páginas.

``` r
epub_head(path1) # muestra lo primero
```

    ## # A tibble: 25 x 2
    ##    section           text                                                       
    ##    <chr>             <chr>                                                      
    ##  1 Section0018.xhtml "Cuando Keiko llegó a la casa de té de Ofusa encont"       
    ##  2 cubierta.xhtml    ""                                                         
    ##  3 sinopsis.xhtml    " \n\n  Impulsado por la nostalgia, Oki Toshio, un es"     
    ##  4 titulo.xhtml      "Yasunari Kawabata\n\n  Lo bello y lo triste\n\n  <U+7F8E><U+3057><U+3055><U+3068>~
    ##  5 info.xhtml        "Título original:<U+7F8E><U+3057><U+3055><U+3068><U+54C0><U+3057><U+307F><U+3068> (Utsukushisa to kanashim~
    ##  6 dedicatoria.xhtml "Lo bello y lo triste"                                     
    ##  7 Section0002.xhtml "Eran seis las butacas giratorias que se alineaban "       
    ##  8 Section0004.xhtml "Oki se había detenido en una colina, con la mirada"       
    ##  9 Section0006.xhtml "Otoko proyectaba llevar a Keiko al templo del mont"       
    ## 10 Section0008.xhtml "Cuando se cansaba de escribir o cuando una novela "       
    ## # ... with 15 more rows
…
``` r
#x<-epub(file.choose())
```

Como observamos lo que queremos son las secciones que realmente tiene
nuestro texto (¡aunque quizás también analizar contraportadas sea otro
tema de análisis!)

``` r
x$data # esto muestra que aquí adentro está lo que queremos
```

    ## [[1]]
    ## # A tibble: 25 x 4
    ##    section        text                                               nword nchar
    ##    <chr>          <chr>                                              <int> <int>
    ##  1 Section0018.x~ "Cuando Keiko llegó a la casa de té de Ofusa enco~  7436 43690
    ##  2 cubierta.xhtml ""                                                     0     0
    ##  3 sinopsis.xhtml " \n\n  Impulsado por la nostalgia, Oki Toshio, u~    92   540
    ##  4 titulo.xhtml   "Yasunari Kawabata\n\n  Lo bello y lo triste\n\n ~    11    86
    ##  5 info.xhtml     "Título original:<U+7F8E><U+3057><U+3055><U+3068><U+54C0><U+3057><U+307F><U+3068> (Utsukushisa to~    30   285
    ##  6 dedicatoria.x~ "Lo bello y lo triste"                                 5    20
    ##  7 Section0002.x~ "Eran seis las butacas giratorias que se alineaba~  5990 34930
    ##  8 Section0004.x~ "Oki se había detenido en una colina, con la mira~  7454 43536
    ##  9 Section0006.x~ "Otoko proyectaba llevar a Keiko al templo del mo~  4601 27247
    ## 10 Section0008.x~ "Cuando se cansaba de escribir o cuando una novel~  3564 20724
    ## # ... with 15 more rows
…
